2019-10-15,"Tutorial submission portal opens"
2019-11-15,"Announce call for papers and diversity scholarship applicants"
2019-12-02,"Submission deadline tutorial proposals"
2020-01-15,"Registration opens"
2020-02-03,"Abstract and diversity scholarship submission deadline"
2020-03-16,"Abstract and diversity scholarship decisions announced"
2020-04-01,"Early Bird registration rate deadline"
2020-07-06,"Dev Day Events"
2020-07-07,"Tutorial Day"
2020-07-08,"Main Conference Begins"
